// Jest Snapshot v1, https://goo.gl/fbAQLP

exports[`List Incident renders the component 1`] = `
<gl-card-stub
  bodyclass=""
  footerclass=""
  headerclass=""
>
  <strong>
    Feb 21, 2020
  </strong>
   
  <gl-tooltip-stub
    target="function () {
              return _vm.$refs.createdAtDateTime
            }"
  >
    <div
      class="gl-display-block gl-align-items-center gl-font-sm"
    >
      <div
        class="gl-mb-2"
      >
        Feb 21, 2020 9:20am
      </div>
       
      <div>
        GMT+2
      </div>
    </div>
  </gl-tooltip-stub>
   
  <div
    class="gl-text-gray-900 gl-mt-3"
  >
    <gl-markdown-stub
      text="Wrong issue order"
    />
  </div>
   
  <gl-badge-stub
    class="gl-display-inline-block gl-mt-3 text-capitalize gl-py-2"
    iconsize="md"
    pill=""
    size="md"
    variant="success"
  >
    
    closed
  
  </gl-badge-stub>
   
  <a
    class="gl-display-block gl-text-decoration-none!"
  >
    <gl-button-stub
      buttontextclasses=""
      category="primary"
      class="gl-font-base gl-mt-5"
      data-qa-selector="incident-link"
      icon=""
      size="medium"
      variant="default"
    >
      
      Full report
    
    </gl-button-stub>
  </a>
</gl-card-stub>
`;
